…
Lets say we want to summarise _all_ the measurement variables, i.e. all the columns containing "_". 
We've learned about summaries and grouped summaries. 
Can you think of a way we can do that using the things we've learned?


~~~
penguins %>% 
  pivot_longer(contains("_"))
~~~
{: .language-r}



~~~
# A tibble: 1,376 × 6
   species island    sex     year name               value
   <fct>   <fct>     <fct>  <int> <chr>              <dbl>
 1 Adelie  Torgersen male    2007 bill_length_mm      39.1
 2 Adelie  Torgersen male    2007 bill_depth_mm       18.7
 3 Adelie  Torgersen male    2007 flipper_length_mm  181  
 4 Adelie  Torgersen male    2007 body_mass_g       3750  
 5 Adelie  Torgersen female  2007 bill_length_mm      39.5
 6 Adelie  Torgersen female  2007 bill_depth_mm       17.4
 7 Adelie  Torgersen female  2007 flipper_length_mm  186  
 8 Adelie  Torgersen female  2007 body_mass_g       3800  
 9 Adelie  Torgersen female  2007 bill_length_mm      40.3
10 Adelie  Torgersen female  2007 bill_depth_mm       18  
# … with 1,366 more rows
…
~~~
penguins_sum %>% 
  pivot_longer(c(mean, sd, min, max),
               names_to = "stat")
~~~
{: .language-r}



~~~
# A tibble: 80 × 6
   name          species island        n stat  value
   <chr>         <fct>   <fct>     <int> <chr> <dbl>
 1 bill_depth_mm Adelie  Biscoe       44 mean  18.4 
 2 bill_depth_mm Adelie  Biscoe       44 sd     1.19
 3 bill_depth_mm Adelie  Biscoe       44 min   16   
 4 bill_depth_mm Adelie  Biscoe       44 max   21.1 
 5 bill_depth_mm Adelie  Dream        56 mean  18.3 
 6 bill_depth_mm Adelie  Dream        56 sd     1.13
 7 bill_depth_mm Adelie  Dream        56 min   15.5 
 8 bill_depth_mm Adelie  Dream        56 max   21.2 
 9 bill_depth_mm Adelie  Torgersen    51 mean  18.4 
10 bill_depth_mm Adelie  Torgersen    51 sd     1.34
# … with 70 more rows
…
